…
## Single timeseries
Obtain historical data for single stock (for example, Google):

```r
# get historical data for single stock. e.g. google
tq_get("GOOGL", get="stock.prices")
```

```
## # A tibble: 2,759 x 7
##    date        open  high   low close   volume adjusted
##    <date>     <dbl> <dbl> <dbl> <dbl>    <dbl>    <dbl>
##  1 2008-01-02  347.  349.  339.  343.  8605100     343.
##  2 2008-01-03  343.  344.  339.  343.  6498400     343.
##  3 2008-01-04  340.  341.  328.  329. 10708800     329.
##  4 2008-01-07  327.  331.  319.  325. 12793900     325.
##  5 2008-01-08  327.  330.  316.  316. 10667500     316.
##  6 2008-01-09  315.  327.  312.  327. 13465900     327.
##  7 2008-01-10  323.  329.  320.  324. 12655700     324.
##  8 2008-01-11  322.  325.  315.  319.  9944000     319.
##  9 2008-01-14  326.  329.  323.  327.  8886100     327.
## 10 2008-01-15  323.  325.  318.  319. 11125200     319.
## # ... with 2,749 more rows
```

Calculate monthly return of single stock:

```r
# calculate monthly return of single stock
tq_get(c("GOOGL"), get="stock.prices") %>%
  tq_transmute(select=adjusted,
               mutate_fun=periodReturn,
               period="monthly",
               col_rename = "monthly_return")
```

```
## # A tibble: 132 x 2
##    date       monthly_return
##    <date>              <dbl>
##  1 2008-01-31        -0.176 
##  2 2008-02-29        -0.165 
##  3 2008-03-31        -0.0652
##  4 2008-04-30         0.304 
##  5 2008-05-30         0.0200
##  6 2008-06-30        -0.101 
##  7 2008-07-31        -0.100 
##  8 2008-08-29        -0.0221
##  9 2008-09-30        -0.135 
## 10 2008-10-31        -0.103 
## # ... with 122 more rows
```
…
<img src="tidyquant_files/figure-html/unnamed-chunk-6-1.png" width="672" />

## Multiple timeseries
Obtain historical data for multiple stocks (for example, GAFA):

```r
# get historical data for multiple stocks. e.g. GAFA
tq_get(c("GOOGL","AMZN","FB","AAPL"), get="stock.prices")
```

```
## # A tibble: 9,932 x 8
##    symbol date        open  high   low close   volume adjusted
##    <chr>  <date>     <dbl> <dbl> <dbl> <dbl>    <dbl>    <dbl>
##  1 GOOGL  2008-01-02  347.  349.  339.  343.  8605100     343.
##  2 GOOGL  2008-01-03  343.  344.  339.  343.  6498400     343.
##  3 GOOGL  2008-01-04  340.  341.  328.  329. 10708800     329.
##  4 GOOGL  2008-01-07  327.  331.  319.  325. 12793900     325.
##  5 GOOGL  2008-01-08  327.  330.  316.  316. 10667500     316.
##  6 GOOGL  2008-01-09  315.  327.  312.  327. 13465900     327.
##  7 GOOGL  2008-01-10  323.  329.  320.  324. 12655700     324.
##  8 GOOGL  2008-01-11  322.  325.  315.  319.  9944000     319.
##  9 GOOGL  2008-01-14  326.  329.  323.  327.  8886100     327.
## 10 GOOGL  2008-01-15  323.  325.  318.  319. 11125200     319.
## # ... with 9,922 more rows
```
…
Calculate *monthly return* of multiple stocks (again, GAFA):

```r
# calculate monthly return of multiple stocks
tq_get(c("GOOGL","AMZN","FB","AAPL"), get="stock.prices") %>%
  group_by(symbol) %>%
  tq_transmute(select=adjusted,
               mutate_fun=periodReturn,
               period="monthly",
               col_rename = "monthly_return")
```

```
## # A tibble: 476 x 3
## # Groups:   symbol [4]
##    symbol date       monthly_return
##    <chr>  <date>              <dbl>
##  1 GOOGL  2008-01-31        -0.176 
##  2 GOOGL  2008-02-29        -0.165 
##  3 GOOGL  2008-03-31        -0.0652
##  4 GOOGL  2008-04-30         0.304 
##  5 GOOGL  2008-05-30         0.0200
##  6 GOOGL  2008-06-30        -0.101 
##  7 GOOGL  2008-07-31        -0.100 
##  8 GOOGL  2008-08-29        -0.0221
##  9 GOOGL  2008-09-30        -0.135 
## 10 GOOGL  2008-10-31        -0.103 
## # ... with 466 more rows
```
…
